[
    {
        "response": {
            "card1": {
                "title": "saldo disponible",
                "price": "149997000",
                "config": "container-avaible"
            },
        
            "card2": {
                "title": "tu próximo pago",
                "price": "2886000",
                "config": "container-avaible-detail",
                "data": {
                    "fecha_pago": "15 Enero",
                    "mis_logros": "2726000",
                    "compras_tdc": "1600000"
                }
            },
            "menu": [
                {
                    "icon": "icon",
                    "text": "Crear logro"
                },
                {
                    "icon": "icon",
                    "text": "pagar servicio"
                },
                {
                    "icon": "icon",
                    "text": "Suscripción"
                }
            ],
            "movimientos": [{
                "companyIcon": "figure",
                "companyTitle": "Auto",
                "description": "Mis logros",
                "time": "2m",
                "costo": 3500000,
                "data": {
                    "id": 1,
                    "title":  "saldo disponible",
                    "fecha_pago": "15 Enero",
                    "mis_logros": "2726000",
                    "compras_tdc": "1600000",
                    "config": "container-avaible-detail"
                }
            },
            {
                "companyIcon": "figure",
                "companyTitle": "CFE",
                "description": "Pago de servicio",
                "time": "Ayer",
                "costo": 250,
                "data": {
                    "id": 2,
                    "title":  "saldo disponible",
                    "fecha_pago": "20 Enero",
                    "mis_logros": "2726000",
                    "compras_tdc": "16000",
                    "config": "container-avaible-detail"
                }
                
            },
            {
                "companyIcon": "figure",
                "companyTitle": "Netflix",
                "description": "Suscripciones",
                "time": "28 de dic",
                "costo": 140,
                "data": {
                    "id": 3,
                    "title":  "saldo disponible",
                    "fecha_pago": "15 Febrero",
                    "mis_logros": "2726",
                    "compras_tdc": "1600",
                    "config": "container-avaible-detail"
                }
            },
            {
                "companyIcon": "figure",
                "companyTitle": "Tacos",
                "description": "tacos comprados",
                "time": "5h",
                "costo": 180,
                "data": {
                    "id": 4,
                    "title":  "saldo disponible",
                    "fecha_pago": "25 Septiembre",
                    "mis_logros": "27260",
                    "compras_tdc": "1600",
                    "config": "container-avaible-detail"
                }
            },
            {
                "companyIcon": "figure",
                "companyTitle": "table dance",
                "description": "consumo",
                "time": "2 dias",
                "costo": 1500,
                "data": {
                    "id": 5,
                    "title":  "saldo disponible",
                    "fecha_pago": "15 Enero",
                    "mis_logros": "2726000",
                    "compras_tdc": "1600000",
                    "config": "container-avaible-detail"
                }
            }
            ]
        }
    }
]